…
    ## $Resources
    ## # A tibble: 6,916 × 5
    ## # Groups:   Portfolio [2]
    ##    date       Portfolio   Returns cumreturn_Rand Sector   
    ##    <date>     <chr>         <dbl>          <dbl> <chr>    
    ##  1 2008-01-02 J200       0.0148            1     Resources
    ##  2 2008-01-02 J400       0.0164            1     Resources
    ##  3 2008-01-03 J200       0.00699           1.01  Resources
    ##  4 2008-01-03 J400       0.0131            1.01  Resources
    ##  5 2008-01-04 J200      -0.000828          1.01  Resources
    ##  6 2008-01-04 J400      -0.00315           1.01  Resources
    ##  7 2008-01-07 J200      -0.0184            0.988 Resources
    ##  8 2008-01-07 J400      -0.0153            0.994 Resources
    ##  9 2008-01-08 J200       0.0151            1.00  Resources
    ## 10 2008-01-08 J400       0.0213            1.02  Resources
    ## # … with 6,906 more rows
    ## 
    ## $Industrials
    ## # A tibble: 6,916 × 5
    ## # Groups:   Portfolio [2]
    ##    date       Portfolio  Returns cumreturn_Rand Sector     
    ##    <date>     <chr>        <dbl>          <dbl> <chr>      
    ##  1 2008-01-02 J200       0.0123           1     Industrials
    ##  2 2008-01-02 J400       0.0130           1     Industrials
    ##  3 2008-01-03 J200      -0.0179           0.982 Industrials
    ##  4 2008-01-03 J400      -0.0194           0.981 Industrials
    ##  5 2008-01-04 J200      -0.00681          0.975 Industrials
    ##  6 2008-01-04 J400      -0.00380          0.977 Industrials
    ##  7 2008-01-07 J200      -0.00122          0.974 Industrials
    ##  8 2008-01-07 J400      -0.00368          0.973 Industrials
    ##  9 2008-01-08 J200       0.00680          0.981 Industrials
    ## 10 2008-01-08 J400       0.00481          0.978 Industrials
    ## # … with 6,906 more rows
    ## 
    ## $Financials
    ## # A tibble: 6,916 × 5
    ## # Groups:   Portfolio [2]
    ##    date       Portfolio  Returns cumreturn_Rand Sector    
    ##    <date>     <chr>        <dbl>          <dbl> <chr>     
    ##  1 2008-01-02 J200       0.00808          1     Financials
    ##  2 2008-01-02 J400       0.0101           1     Financials
    ##  3 2008-01-03 J200      -0.0189           0.981 Financials
    ##  4 2008-01-03 J400      -0.0193           0.981 Financials
    ##  5 2008-01-04 J200      -0.0158           0.966 Financials
    ##  6 2008-01-04 J400      -0.0132           0.968 Financials
    ##  7 2008-01-07 J200      -0.00957          0.956 Financials
    ##  8 2008-01-07 J400      -0.00907          0.959 Financials
    ##  9 2008-01-08 J200       0.00818          0.964 Financials
    ## 10 2008-01-08 J400       0.0102           0.969 Financials
    ## # … with 6,906 more rows
…
